<svg width="16" height="16" viewBox="0 0 16 16" fill="none" xmlns="http://www.w3.org/2000/svg">
<path d="M7.99986 14.6527C7.92463 14.6525 7.84998 14.6395 7.77906 14.6143C7.65597 14.5691 7.54975 14.4871 7.47477 14.3795C7.39979 14.2719 7.35968 14.1439 7.35986 14.0127V4.32634C7.35972 4.17531 7.41299 4.02909 7.51026 3.91354C8.19612 3.07348 9.06366 2.4 10.0475 1.94382C11.0314 1.48764 12.106 1.26065 13.1903 1.27994C13.3515 1.29207 13.5023 1.36482 13.6121 1.48355C13.7219 1.60229 13.7827 1.7582 13.7823 1.91994V11.5999C13.7825 11.6882 13.7645 11.7755 13.7294 11.8565C13.6943 11.9374 13.6428 12.0102 13.5782 12.0703C13.5136 12.1304 13.4372 12.1765 13.3539 12.2057C13.2707 12.2349 13.1823 12.2466 13.0943 12.2399C12.212 12.236 11.3401 12.4303 10.5431 12.8086C9.74606 13.1869 9.04423 13.7395 8.48946 14.4255C8.42933 14.4968 8.35436 14.554 8.26979 14.5933C8.18522 14.6325 8.0931 14.6528 7.99986 14.6527ZM8.63986 4.56634V12.5055C9.75022 11.6292 11.093 11.0975 12.5023 10.9759V2.55994C11.009 2.72144 9.63063 3.43744 8.63986 4.56634Z" fill="#7225BA"/>
<path d="M8 14.7199C7.9189 14.7206 7.83845 14.7054 7.7632 14.6751C5.57627 13.8244 3.1509 13.8187 0.96 14.6591C0.899961 14.6846 0.837872 14.7049 0.7744 14.7199C0.681689 14.7373 0.586281 14.734 0.495001 14.7102C0.403722 14.6864 0.31883 14.6428 0.2464 14.5823C0.169964 14.5227 0.108068 14.4465 0.0653835 14.3595C0.0226993 14.2724 0.000342372 14.1769 0 14.0799L0 3.66393C0 3.49419 0.0674284 3.3314 0.187452 3.21138C0.307475 3.09135 0.470261 3.02393 0.64 3.02393H2.8576C3.02734 3.02393 3.19012 3.09135 3.31015 3.21138C3.43017 3.3314 3.4976 3.49419 3.4976 3.66393C3.4976 3.83366 3.43017 3.99645 3.31015 4.11647C3.19012 4.2365 3.02734 4.30393 2.8576 4.30393H1.28V13.1967C3.56738 12.5186 6.01569 12.6233 8.2368 13.4943C8.36967 13.5527 8.47874 13.6545 8.54614 13.783C8.61354 13.9116 8.63526 14.0592 8.60773 14.2017C8.58019 14.3442 8.50505 14.4731 8.39463 14.5672C8.2842 14.6614 8.14505 14.7152 8 14.7199Z" fill="#7225BA"/>
<path d="M8.00017 14.6527C7.90694 14.6528 7.81482 14.6325 7.73025 14.5932C7.64568 14.554 7.57071 14.4967 7.51057 14.4255C6.95532 13.7392 6.25294 13.1865 5.45534 12.8082C4.65775 12.4299 3.78533 12.2357 2.90258 12.2399C2.815 12.2455 2.72719 12.2331 2.64461 12.2034C2.56204 12.1737 2.48646 12.1273 2.42258 12.0671C2.35823 12.0074 2.30685 11.9352 2.27162 11.8548C2.23638 11.7744 2.21806 11.6877 2.21778 11.5999V1.9199C2.21732 1.75816 2.27812 1.60224 2.38795 1.48351C2.49778 1.36478 2.64849 1.29203 2.80978 1.2799C3.89435 1.26099 4.96906 1.48847 5.95295 1.94522C6.93684 2.40196 7.80423 3.07605 8.48978 3.9167C8.58634 4.0314 8.63957 4.17636 8.64017 4.3263V14.0127C8.64036 14.1438 8.60025 14.2719 8.52527 14.3795C8.45029 14.4871 8.34407 14.5691 8.22098 14.6143C8.15006 14.6394 8.07541 14.6524 8.00017 14.6527ZM3.49778 10.9759C4.90704 11.0974 6.24982 11.6292 7.36018 12.5055V4.5663C6.36882 3.43814 4.99081 2.7223 3.49778 2.5599V10.9759Z" fill="#7225BA"/>
<path d="M15.36 14.7199C15.3206 14.7231 15.281 14.7231 15.2416 14.7199C15.178 14.7054 15.1158 14.6851 15.056 14.6591C12.8591 13.8177 10.4273 13.8268 8.23678 14.6847L7.76318 13.4943C9.98429 12.6233 12.4326 12.5186 14.72 13.1967V4.30393H13.1424C12.9726 4.30393 12.8099 4.2365 12.6898 4.11647C12.5698 3.99645 12.5024 3.83366 12.5024 3.66393C12.5024 3.49419 12.5698 3.3314 12.6898 3.21138C12.8099 3.09135 12.9726 3.02393 13.1424 3.02393H15.36C15.5297 3.02393 15.6925 3.09135 15.8125 3.21138C15.9326 3.3314 16 3.49419 16 3.66393V14.0799C16.0001 14.1739 15.9796 14.2668 15.9397 14.352C15.8999 14.4372 15.8418 14.5126 15.7696 14.5727C15.6544 14.6681 15.5095 14.7202 15.36 14.7199Z" fill="#7225BA"/>
</svg>
